{
  "docs": [
    {
      "id": 7401248,
      "name": null,
      "alternativeName": "Overcompensating",
      "type": "tv-series",
      "typeNumber": 2,
      "year": 2025,
      "description": null,
      "shortDescription": null,
      "status": "filming",
      "rating": {
        "kp": 0,
        "imdb": 0,
        "filmCritics": 0,
        "russianFilmCritics": 0,
        "await": 0
      },
      "votes": {
        "kp": 0,
        "imdb": 0,
        "filmCritics": 0,
        "russianFilmCritics": 0,
        "await": 0
      },
      "movieLength": null,
      "totalSeriesLength": null,
      "seriesLength": null,
      "ratingMpaa": null,
      "ageRating": null,
      "genres": [
        {
          "name": "комедия"
        }
      ],
      "countries": [
        {
          "name": "США"
        }
      ],
      "releaseYears": [
        {
          "start": 2025,
          "end": null
        }
      ],
      "top10": null,
      "top250": null,
      "isSeries": true,
      "ticketsOnSale": false
    },
    {
      "id": 7400477,
      "name": "Тоннель",
      "alternativeName": null,
      "type": "tv-series",
      "typeNumber": 2,
      "year": null,
      "description": "Неподкупная таможенница Света Суворова всегда была слишком принципиальной для маленького городка, где всё решается «по дружбе». По крайней мере до тех пор, пока финская мафия не похитила её мужа. Есть шанс вернуть его, но для этого Свете придется забыть о своих принципах и пойти на сделку со своей совестью.",
      "shortDescription": null,
      "status": null,
      "rating": {
        "kp": 0,
        "imdb": 0,
        "filmCritics": 0,
        "russianFilmCritics": 0,
        "await": 0
      },
      "votes": {
        "kp": 0,
        "imdb": 0,
        "filmCritics": 0,
        "russianFilmCritics": 0,
        "await": 0
      },
      "movieLength": null,
      "totalSeriesLength": null,
      "seriesLength": null,
      "ratingMpaa": null,
      "ageRating": null,
      "genres": [
        {
          "name": "триллер"
        },
        {
          "name": "криминал"
        }
      ],
      "countries": [
        {
          "name": "Россия"
        }
      ],
      "releaseYears": [
        {
          "start": null,
          "end": null
        }
      ],
      "top10": null,
      "top250": null,
      "isSeries": true,
      "ticketsOnSale": false
    },
    {
      "id": 5108878,
      "name": "Черногория: Разделённая страна",
      "alternativeName": "Montenegro: A Land Divided",
      "enName": null,
      "type": "movie",
      "typeNumber": 1,
      "year": 2021,
      "description": null,
      "shortDescription": null,
      "status": null,
      "rating": {
        "kp": 0,
        "imdb": 7.3,
        "filmCritics": 0,
        "russianFilmCritics": 0,
        "await": 0
      },
      "votes": {
        "kp": 0,
        "imdb": 274,
        "filmCritics": 0,
        "russianFilmCritics": 0,
        "await": 0
      },
      "movieLength": 79,
      "totalSeriesLength": null,
      "seriesLength": null,
      "ratingMpaa": null,
      "ageRating": null,
      "genres": [
        {
          "name": "документальный"
        }
      ],
      "countries": [
        {
          "name": "Сербия"
        },
        {
          "name": "Канада"
        }
      ],
      "top10": null,
      "top250": null,
      "isSeries": false,
      "ticketsOnSale": false
    },
    {
      "id": 7402355,
      "name": "Улыбающаяся Грузия",
      "alternativeName": "Smiling Georgia",
      "enName": null,
      "type": "movie",
      "typeNumber": 1,
      "year": 2023,
      "description": null,
      "shortDescription": null,
      "status": null,
      "rating": {
        "kp": 0,
        "imdb": 7.4,
        "filmCritics": 0,
        "russianFilmCritics": 0,
        "await": 0
      },
      "votes": {
        "kp": 0,
        "imdb": 52,
        "filmCritics": 0,
        "russianFilmCritics": 0,
        "await": 0
      },
      "movieLength": 62,
      "totalSeriesLength": null,
      "seriesLength": null,
      "ratingMpaa": null,
      "ageRating": null,
      "genres": [
        {
          "name": "документальный"
        }
      ],
      "countries": [
        {
          "name": "Грузия"
        }
      ],
      "top10": null,
      "top250": null,
      "isSeries": false,
      "ticketsOnSale": false
    },
    {
      "id": 7400059,
      "name": "Всё, что тебе нужно, — это убивать",
      "alternativeName": "All You Need Is Kill",
      "enName": null,
      "type": "anime",
      "typeNumber": 4,
      "year": null,
      "description": null,
      "shortDescription": null,
      "status": "filming",
      "rating": {
        "kp": 0,
        "imdb": 0,
        "filmCritics": 0,
        "russianFilmCritics": 0,
        "await": 0
      },
      "votes": {
        "kp": 0,
        "imdb": 0,
        "filmCritics": 0,
        "russianFilmCritics": 0,
        "await": 0
      },
      "movieLength": null,
      "totalSeriesLength": null,
      "seriesLength": null,
      "ratingMpaa": null,
      "ageRating": null,
      "poster": {
        "url": "https://image.openmoviedb.com/kinopoisk-images/10768063/076175ee-5cdc-49f7-a9f4-7a03e5631343/orig",
        "previewUrl": "https://image.openmoviedb.com/kinopoisk-images/10768063/076175ee-5cdc-49f7-a9f4-7a03e5631343/x1000"
      },
      "genres": [
        {
          "name": "аниме"
        },
        {
          "name": "мультфильм"
        },
        {
          "name": "фантастика"
        },
        {
          "name": "боевик"
        }
      ],
      "countries": [
        {
          "name": "Япония"
        }
      ],
      "top10": null,
      "top250": null,
      "isSeries": false,
      "ticketsOnSale": false
    },
    {
      "id": 7401258,
      "name": "Когда нас никто не видит",
      "alternativeName": "Cuando nadie nos ve",
      "type": "tv-series",
      "typeNumber": 2,
      "year": 2025,
      "description": null,
      "shortDescription": null,
      "status": null,
      "rating": {
        "kp": 0,
        "imdb": 6.5,
        "filmCritics": 0,
        "russianFilmCritics": 0,
        "await": 0
      },
      "votes": {
        "kp": 1,
        "imdb": 108,
        "filmCritics": 0,
        "russianFilmCritics": 0,
        "await": 0
      },
      "movieLength": null,
      "totalSeriesLength": null,
      "seriesLength": null,
      "ratingMpaa": null,
      "ageRating": null,
      "poster": {
        "url": "https://image.openmoviedb.com/kinopoisk-images/10835644/29cc2c70-0f93-4cd4-94c9-7e2b7a9d1cf7/orig",
        "previewUrl": "https://image.openmoviedb.com/kinopoisk-images/10835644/29cc2c70-0f93-4cd4-94c9-7e2b7a9d1cf7/x1000"
      },
      "genres": [
        {
          "name": "триллер"
        },
        {
          "name": "драма"
        },
        {
          "name": "криминал"
        }
      ],
      "countries": [
        {
          "name": "США"
        },
        {
          "name": "Испания"
        }
      ],
      "releaseYears": [
        {
          "start": 2025,
          "end": null
        }
      ],
      "top10": null,
      "top250": null,
      "isSeries": true,
      "ticketsOnSale": false
    },
    {
      "id": 7401707,
      "name": "Ради победы: Национальная женская футбольная лига",
      "alternativeName": "For the Win: NWSL",
      "type": "tv-series",
      "typeNumber": 2,
      "year": 2025,
      "description": null,
      "shortDescription": null,
      "status": "completed",
      "rating": {
        "kp": 0,
        "imdb": 8,
        "filmCritics": 0,
        "russianFilmCritics": 0,
        "await": 0
      },
      "votes": {
        "kp": 0,
        "imdb": 20,
        "filmCritics": 0,
        "russianFilmCritics": 0,
        "await": 0
      },
      "movieLength": null,
      "totalSeriesLength": null,
      "seriesLength": null,
      "ratingMpaa": null,
      "ageRating": null,
      "poster": {
        "url": "https://image.openmoviedb.com/kinopoisk-images/10953618/8b154a1e-17d7-42b4-a118-201a58930122/orig",
        "previewUrl": "https://image.openmoviedb.com/kinopoisk-images/10953618/8b154a1e-17d7-42b4-a118-201a58930122/x1000"
      },
      "genres": [
        {
          "name": "документальный"
        },
        {
          "name": "спорт"
        }
      ],
      "countries": [
        {
          "name": "США"
        }
      ],
      "releaseYears": [
        {
          "start": 2025,
          "end": 2025
        }
      ],
      "top10": null,
      "top250": null,
      "isSeries": true,
      "ticketsOnSale": false
    },
    {
      "id": 7401488,
      "name": "Цвиток",
      "alternativeName": null,
      "enName": null,
      "type": "movie",
      "typeNumber": 1,
      "year": 2024,
      "description": "Как обычно, на ночь в НИИ остались двое — уборщица Гульча и охранник Леха. Впервые они заговорили друг с другом.",
      "shortDescription": null,
      "status": null,
      "rating": {
        "kp": 0,
        "imdb": 0,
        "filmCritics": 0,
        "russianFilmCritics": 0,
        "await": 0
      },
      "votes": {
        "kp": 0,
        "imdb": 0,
        "filmCritics": 0,
        "russianFilmCritics": 0,
        "await": 0
      },
      "movieLength": 17,
      "totalSeriesLength": null,
      "seriesLength": null,
      "ratingMpaa": null,
      "ageRating": 16,
      "genres": [
        {
          "name": "короткометражка"
        },
        {
          "name": "комедия"
        }
      ],
      "countries": [
        {
          "name": "Россия"
        }
      ],
      "top10": null,
      "top250": null,
      "isSeries": false,
      "ticketsOnSale": false
    },
    {
      "id": 7401486,
      "name": null,
      "alternativeName": "O Auto da Compadecida 2",
      "enName": null,
      "type": "movie",
      "typeNumber": 1,
      "year": 2024,
      "description": null,
      "shortDescription": null,
      "status": null,
      "rating": {
        "kp": 0,
        "imdb": 6.3,
        "filmCritics": 0,
        "russianFilmCritics": 0,
        "await": 0
      },
      "votes": {
        "kp": 0,
        "imdb": 2621,
        "filmCritics": 0,
        "russianFilmCritics": 0,
        "await": 0
      },
      "movieLength": 104,
      "totalSeriesLength": null,
      "seriesLength": null,
      "ratingMpaa": null,
      "ageRating": null,
      "genres": [
        {
          "name": "фэнтези"
        },
        {
          "name": "драма"
        },
        {
          "name": "комедия"
        }
      ],
      "countries": [
        {
          "name": "Бразилия"
        }
      ],
      "top10": null,
      "top250": null,
      "isSeries": false,
      "ticketsOnSale": false
    },
    {
      "id": 7399229,
      "name": null,
      "alternativeName": "Aattam",
      "enName": null,
      "type": "movie",
      "typeNumber": 1,
      "year": 2023,
      "description": null,
      "shortDescription": null,
      "status": null,
      "rating": {
        "kp": 0,
        "imdb": 8.2,
        "filmCritics": 0,
        "russianFilmCritics": 0,
        "await": 0
      },
      "votes": {
        "kp": 0,
        "imdb": 4671,
        "filmCritics": 0,
        "russianFilmCritics": 0,
        "await": 0
      },
      "movieLength": 139,
      "totalSeriesLength": null,
      "seriesLength": null,
      "ratingMpaa": null,
      "ageRating": null,
      "genres": [
        {
          "name": "триллер"
        },
        {
          "name": "драма"
        },
        {
          "name": "детектив"
        }
      ],
      "countries": [
        {
          "name": "Индия"
        }
      ],
      "top10": null,
      "top250": null,
      "isSeries": false,
      "ticketsOnSale": false
    }
  ],
  "total": 1077350,
  "limit": 10,
  "page": 1,
  "pages": 107735
}